\contentsline {chapter}{\numberline {1}Rosherul i edemid \nobreakspace {}\\(The Lion and the Mouse)}{3}
\contentsline {chapter}{\numberline {2}Limlim ruletho \nobreakspace {}\\(The Cat's Bell)}{5}
\contentsline {chapter}{\numberline {3}Dumidal i \IeC {\'e}elen \nobreakspace {}\\ (The Fox and the Grapes)}{7}
\contentsline {chapter}{\numberline {4}R\IeC {\'\i }ibib i edemid \nobreakspace {}\\(The Frog and the Mouse)}{9}
