\contentsline {chapter}{\numberline {1}Hathal Sh\IeC {\'a}al \\(The Good Day)}{3}
\contentsline {chapter}{\numberline {2}Medi om\IeC {\'a} i h\IeC {\'a}awith \\ (The teacher and child speak)}{6}
\contentsline {chapter}{\numberline {3}Elahela \\(Celebration)}{9}
\contentsline {chapter}{\numberline {4}Ozh Letho \\ (My Dream)}{14}
\contentsline {chapter}{\numberline {5}Sh\IeC {\'a}al W\IeC {\'\i }thuya \\ (A Day in the Life)}{19}
\contentsline {chapter}{\numberline {6}D\IeC {\'o}d\IeC {\'o}on M\IeC {\'a}yel Bethu \\ (The Rectification of Michael)}{26}
\contentsline {chapter}{\numberline {7}Daleyodewan Di\IeC {\'\i }dinethu \\ (Holiday Table)}{30}
\contentsline {chapter}{\numberline {8}Im H\IeC {\'e}edawan \\ (Pilgrimage)}{33}
\contentsline {chapter}{\numberline {9}W\IeC {\'o}oban M\IeC {\'e}ri Batha \\ (The Birth-Giving of Mary the Beloved)}{37}
\contentsline {chapter}{\numberline {10}Y\IeC {\'a}ahalehaleh\IeC {\'a} \\ (The Journeyman Musician)}{39}
